…
```r
#set.seed(227)

#wine <- sample_n(wine, 1000)
```

Let's take a look at the data

```r
wine
```

```
## # A tibble: 150,930 x 11
##       id country
##    <int>   <chr>
##  1     0      US
##  2     1   Spain
##  3     2      US
##  4     3      US
##  5     4  France
##  6     5   Spain
##  7     6   Spain
##  8     7   Spain
##  9     8      US
## 10     9      US
## # ... with 150,920 more rows, and 9 more variables: description <chr>,
## #   designation <chr>, points <int>, price <dbl>, province <chr>,
## #   region_1 <chr>, region_2 <chr>, variety <chr>, winery <chr>
```
…
```
## Joining, by = "word"
```

```r
description_sentiment
```

```
## # A tibble: 123,785 x 2
##       id sentiment
##    <int>     <dbl>
##  1     0       1.8
##  2     1       1.5
##  3     3       2.0
##  4     4       2.0
##  5     5       2.5
##  6     6       2.5
##  7     7       2.0
##  8     9       0.0
##  9    10      -1.0
## 10    12       4.0
## # ... with 123,775 more rows
```
…
