ML Crashcourse Index
…
## Joining, by = "word"

description_sentiment

## # A tibble: 398 x 2
##       id sentiment
##    <int>     <dbl>
##  1   311     1.44 
##  2   392     0.667
##  3   488     0.500
##  4   618    -2.00 
##  5   854     1.33 
##  6   908     1.67 
##  7  2079     2.00 
##  8  2396     1.00 
##  9  2802     1.00 
## 10  3044     2.00 
## # ... with 388 more rows
…
