ML Crashcourse Index
…
## Joining, by = "word"

description_sentiment

## # A tibble: 408 x 2
##       id sentiment
##    <int>     <dbl>
##  1   875 0.6666667
##  2  2090 1.0000000
##  3  2250 1.0000000
##  4  2261 2.0000000
##  5  2700 1.6666667
##  6  3097 0.5000000
##  7  3356 2.5000000
##  8  3604 0.7500000
##  9  3921 1.3333333
## 10  4118 2.5000000
## # ... with 398 more rows
…
